{
  "project_info": {
    "project_number": "683370263790",
    "firebase_url": "https://mealprep-cd5b1.firebaseio.com",
    "project_id": "mealprep-cd5b1",
    "storage_bucket": "mealprep-cd5b1.appspot.com"
  },
  "client": [
    {
      "client_info": {
        "mobilesdk_app_id": "1:683370263790:android:f582e97260fd46e353afff",
        "android_client_info": {
          "package_name": "com.mealprep"
        }
      },
      "oauth_client": [
        {
          "client_id": "683370263790-loajb6pjvvupt7n1gfedcg3q6elvm9nv.apps.googleusercontent.com",
          "client_type": 1,
          "android_info": {
            "package_name": "com.mealprep",
            "certificate_hash": "87d2593a78bb642b721a40f48ba379dd5b5a69f8"
          }
        }
      ],
      "api_key": [
        {
          "current_key": "AIzaSyBz298tYtWWHjJ6u_uggfUo9OQoBkIULpg"
        }
      ],
      "services": {
        "appinvite_service": {
          "other_platform_oauth_client": [
            {
              "client_id": "683370263790-6dnjt8ukfu6pguckos4s2luu1t11fik2.apps.googleusercontent.com",
              "client_type": 3
            }
          ]
        }
      }
    }
  ],
  "configuration_version": "1"
}